{
  "project_info": {
    "project_number": "987376977412",
    "firebase_url": "https://api-login-1ae12.firebaseio.com",
    "project_id": "api-login-1ae12",
    "storage_bucket": "api-login-1ae12.appspot.com"
  },
  "client": [
    {
      "client_info": {
        "mobilesdk_app_id": "1:987376977412:android:2410209a94b401acdb9751",
        "android_client_info": {
          "package_name": "android.example.api_login"
        }
      },
      "oauth_client": [
        {
          "client_id": "987376977412-fittfvb7o7qotkmutlcu9jbiaplahpta.apps.googleusercontent.com",
          "client_type": 1,
          "android_info": {
            "package_name": "android.example.api_login",
            "certificate_hash": "2b0a003877ab48f8d8e799f6b065fff978cff4b5"
          }
        },
        {
          "client_id": "987376977412-j365d19mgjtfcqhim4f3nfu03qoa4j6g.apps.googleusercontent.com",
          "client_type": 3
        }
      ],
      "api_key": [
        {
          "current_key": "AIzaSyDg1Dkq7TAPQ0y5rM7qH0_u0YpWp8pybto"
        }
      ],
      "services": {
        "appinvite_service": {
          "other_platform_oauth_client": [
            {
              "client_id": "987376977412-j365d19mgjtfcqhim4f3nfu03qoa4j6g.apps.googleusercontent.com",
              "client_type": 3
            }
          ]
        }
      }
    }
  ],
  "configuration_version": "1"
}